24

84
-1
111
-1
4
51
47
-2
-1
21

110
3
-2
7
-1
-1
112
-1
114
8

64
-1
50
51
17
-3
12
-2
8
-2

8
104
-1
7
4
3
-1
2
-3
-1

100
21
-2
8
-2
-1
10
-1
95
13

13
-1
113
1
-2
4
-1
73
-2
-1

95
18
-1
56
-1
59
21
-1
-1
61

105
-1
83
22
-2
14
20
3
-4
1

60
-1
48
-1
43
-1
40
-1
111
3

94
-1
102
-1
92
-1
109
2
-1
-1

100
18
3
-2
-2
-1
8
48
12
-2

16
-1
97
-1
93
-1
17
103
-1
12

66
2
-2
-1
75
-1
17
-1
45
48

68
49
-2
-1
51
48
-1
5
-2
-1

58
-1
5
-1
119
2
-2
-1
74
9

29
-1
122
-1
3
35
6
30
-4
-1

31
-1
57
51
2
-2
6
21
-4
-2

72
46
3
-2
24
-1
-1
101
1
2

79
42
-1
44
21
-3
8
15
-4
-1

44
57
-2
78
-1
-1
88
29
5
-3

116
-1
109
3
8
-1
-1
85
-1
90

2
23
54
-1
-1
-1
121
-1
87
-1

65
48
-1
28
-1
-1
6
-1
99
5

106
17
-2
-1
120
-1
77
-1
43
-1
